PipelinedProcessor/MultiCycle2/wave_pipelined.vcd
$version Generated by VerilatedVcd $end
$timescale 1ps $end
 $scope module top_tb $end
  $var wire 1 7! clk $end
  $var wire 1 8! rst $end
  $scope module uut $end
   $var wire 32 A! WIDTH [31:0] $end
   $var wire 32 A! REG_FILE_DEPTH [31:0] $end
   $var wire 32 B! INST_MEM_DEPTH [31:0] $end
   $var wire 32 B! DATA_MEM_DEPTH [31:0] $end
   $var wire 1 7! clk $end
   $var wire 1 8! rst $end
   $var wire 32 4! pc_in [31:0] $end
   $var wire 32 p pc_out [31:0] $end
   $var wire 32 q pc_plus_4 [31:0] $end
   $var wire 32 # pc_branch [31:0] $end
   $var wire 32 9! instr_if [31:0] $end
   $var wire 32 $ pc_id [31:0] $end
   $var wire 32 % instr_id [31:0] $end
   $var wire 32 :! read_data_1 [31:0] $end
   $var wire 32 ;! read_data_2 [31:0] $end
   $var wire 32 & imm_id [31:0] $end
   $var wire 5 C! rd_id [4:0] $end
   $var wire 7 D! funct7_id [6:0] $end
   $var wire 3 E! funct3_id [2:0] $end
   $var wire 7 F! opcode_id [6:0] $end
   $var wire 1 ' regWrite_id $end
   $var wire 1 ( memtoReg_id $end
   $var wire 1 ) memRead_id $end
   $var wire 1 * memWrite_id $end
   $var wire 1 + branch_id $end
   $var wire 1 , aluSrc_id $end
   $var wire 32 - read_data_1_ex [31:0] $end
   $var wire 32 . read_data_2_ex [31:0] $end
   $var wire 32 / imm_ex [31:0] $end
   $var wire 32 0 pc_ex [31:0] $end
   $var wire 5 1 rd_ex [4:0] $end
   $var wire 5 2 rs1_ex [4:0] $end
   $var wire 5 3 rs2_ex [4:0] $end
   $var wire 7 4 funct7_ex [6:0] $end
   $var wire 3 5 funct3_ex [2:0] $end
   $var wire 7 6 opcode_ex [6:0] $end
   $var wire 1 7 regWrite_ex $end
   $var wire 1 8 memtoReg_ex $end
   $var wire 1 9 memRead_ex $end
   $var wire 1 : memWrite_ex $end
   $var wire 1 ; branch_ex $end
   $var wire 1 < aluSrc_ex $end
   $var wire 32 = alu_result_ex [31:0] $end
   $var wire 1 > comparison_ex $end
   $var wire 32 ? rs2_forwarded_data [31:0] $end
   $var wire 32 @ alu_operand1 [31:0] $end
   $var wire 32 A alu_operand2 [31:0] $end
   $var wire 32 B alu_result_mem [31:0] $end
   $var wire 32 C write_data_mem [31:0] $end
   $var wire 5 D rd_mem [4:0] $end
   $var wire 3 E funct3_mem [2:0] $end
   $var wire 1 F regWrite_mem $end
   $var wire 1 G memtoReg_mem $end
   $var wire 1 H memRead_mem $end
   $var wire 1 I memWrite_mem $end
   $var wire 1 J branch_mem $end
   $var wire 1 K comparison_mem $end
   $var wire 32 <! mem_read_data [31:0] $end
   $var wire 32 =! data_mem_out [31:0] $end
   $var wire 1 L mem_bypass_en $end
   $var wire 32 M mem_read_data_wb [31:0] $end
   $var wire 32 N alu_result_wb [31:0] $end
   $var wire 32 O write_data_wb [31:0] $end
   $var wire 5 P rd_wb [4:0] $end
   $var wire 1 Q regWrite_wb $end
   $var wire 1 R memtoReg_wb $end
   $var wire 1 S memWrite_wb $end
   $var wire 2 T forwardA [1:0] $end
   $var wire 2 U forwardB [1:0] $end
   $var wire 1 V pc_write $end
   $var wire 1 V if_id_write $end
   $var wire 1 W control_stall $end
   $var wire 1 X branch_ctrl $end
   $var wire 1 Y memRead_ctrl $end
   $var wire 1 Z memtoReg_ctrl $end
   $var wire 1 [ memWrite_ctrl $end
   $var wire 1 , aluSrc_ctrl $end
   $var wire 1 \ regWrite_ctrl $end
   $scope module adder_branch $end
    $var wire 32 A! WIDTH [31:0] $end
    $var wire 32 0 A [31:0] $end
    $var wire 32 / B [31:0] $end
    $var wire 32 # out [31:0] $end
   $upscope $end
   $scope module adder_pc $end
    $var wire 32 A! WIDTH [31:0] $end
    $var wire 32 p A [31:0] $end
    $var wire 32 G! B [31:0] $end
    $var wire 32 q out [31:0] $end
   $upscope $end
   $scope module pc_mux $end
    $var wire 32 A! WIDTH [31:0] $end
    $var wire 32 # A [31:0] $end
    $var wire 32 q B [31:0] $end
    $var wire 1 ] sel $end
    $var wire 32 4! out [31:0] $end
   $upscope $end
   $scope module u_alu $end
    $var wire 32 A! WIDTH [31:0] $end
    $var wire 32 @ data_in_1 [31:0] $end
    $var wire 32 A data_in_2 [31:0] $end
    $var wire 3 5 funct3 [2:0] $end
    $var wire 7 4 funct7 [6:0] $end
    $var wire 7 6 opcode [6:0] $end
    $var wire 32 = data_out [31:0] $end
    $var wire 1 ^ zero $end
    $var wire 1 > comparison $end
    $var wire 7 H! ALI_OP [6:0] $end
    $var wire 7 I! AL_OP [6:0] $end
    $var wire 7 J! MEM_WR_OP [6:0] $end
    $var wire 7 K! MEM_RD_OP [6:0] $end
    $var wire 7 L! BR_OP [6:0] $end
    $var wire 7 M! JAL [6:0] $end
    $var wire 7 N! JALR [6:0] $end
    $var wire 7 O! LUI [6:0] $end
    $var wire 7 P! AUIPC [6:0] $end
   $upscope $end
   $scope module u_control $end
    $var wire 7 _ opcode [6:0] $end
    $var wire 1 X branch $end
    $var wire 1 Y memRead $end
    $var wire 1 Z memtoReg $end
    $var wire 1 [ memWrite $end
    $var wire 1 , aluSrc $end
    $var wire 1 \ regWrite $end
    $var wire 7 H! ALI_OP [6:0] $end
    $var wire 7 I! AL_OP [6:0] $end
    $var wire 7 J! MEM_WR_OP [6:0] $end
    $var wire 7 K! MEM_RD_OP [6:0] $end
    $var wire 7 L! BR_OP [6:0] $end
    $var wire 7 N! JALR [6:0] $end
    $var wire 7 M! JAL [6:0] $end
    $var wire 7 O! LUI [6:0] $end
    $var wire 7 P! AUIPC [6:0] $end
   $upscope $end
   $scope module u_data_mem $end
    $var wire 32 A! WIDTH [31:0] $end
    $var wire 32 B! DEPTH [31:0] $end
    $var wire 1 7! clk $end
    $var wire 1 8! rst $end
    $var wire 32 C data_in [31:0] $end
    $var wire 32 B addr [31:0] $end
    $var wire 1 I wr_en $end
    $var wire 1 H rd_en $end
    $var wire 3 E funct3 [2:0] $end
    $var wire 32 =! data_out [31:0] $end
    $var wire 32 Q! MEM_SIZE [31:0] $end
    $var wire 10 ` a0 [9:0] $end
    $var wire 10 a a1 [9:0] $end
    $var wire 10 b a2 [9:0] $end
    $var wire 10 c a3 [9:0] $end
    $var wire 8 5! b0 [7:0] $end
    $var wire 8 6! b1 [7:0] $end
    $var wire 8 >! b2 [7:0] $end
    $var wire 8 ?! b3 [7:0] $end
   $upscope $end
   $scope module u_ex_mem $end
    $var wire 32 A! WIDTH [31:0] $end
    $var wire 1 7! clk $end
    $var wire 1 8! rst $end
    $var wire 32 = alu_result_in [31:0] $end
    $var wire 32 ? write_data_in [31:0] $end
    $var wire 5 1 rd_in [4:0] $end
    $var wire 7 R! funct7_in [6:0] $end
    $var wire 3 5 funct3_in [2:0] $end
    $var wire 1 7 regWrite_in $end
    $var wire 1 8 memtoReg_in $end
    $var wire 1 9 memRead_in $end
    $var wire 1 : memWrite_in $end
    $var wire 1 ; branch_in $end
    $var wire 1 > comparison_in $end
    $var wire 32 B alu_result_out [31:0] $end
    $var wire 32 C write_data_out [31:0] $end
    $var wire 5 D rd_out [4:0] $end
    $var wire 3 E funct3_out [2:0] $end
    $var wire 1 F regWrite_out $end
    $var wire 1 G memtoReg_out $end
    $var wire 1 H memRead_out $end
    $var wire 1 I memWrite_out $end
    $var wire 1 J branch_out $end
    $var wire 1 K comparison_out $end
   $upscope $end
   $scope module u_forwarding $end
    $var wire 1 F ex_mem_regWrite $end
    $var wire 5 D ex_mem_rd [4:0] $end
    $var wire 1 Q mem_wb_regWrite $end
    $var wire 5 P mem_wb_rd [4:0] $end
    $var wire 5 2 id_ex_rs1 [4:0] $end
    $var wire 5 3 id_ex_rs2 [4:0] $end
    $var wire 2 T forwardA [1:0] $end
    $var wire 2 U forwardB [1:0] $end
   $upscope $end
   $scope module u_hazard $end
    $var wire 1 9 id_ex_memRead $end
    $var wire 5 1 id_ex_rd [4:0] $end
    $var wire 5 d if_id_rs1 [4:0] $end
    $var wire 5 e if_id_rs2 [4:0] $end
    $var wire 1 V pc_write $end
    $var wire 1 V if_id_write $end
    $var wire 1 W control_stall $end
   $upscope $end
   $scope module u_id_ex $end
    $var wire 32 A! WIDTH [31:0] $end
    $var wire 1 7! clk $end
    $var wire 1 8! rst $end
    $var wire 1 W stall $end
    $var wire 32 :! read_data_1_in [31:0] $end
    $var wire 32 ;! read_data_2_in [31:0] $end
    $var wire 32 & imm_in [31:0] $end
    $var wire 32 $ pc_in [31:0] $end
    $var wire 5 f rd_in [4:0] $end
    $var wire 7 g funct7_in [6:0] $end
    $var wire 3 h funct3_in [2:0] $end
    $var wire 7 _ opcode_in [6:0] $end
    $var wire 1 ' regWrite_in $end
    $var wire 1 ( memtoReg_in $end
    $var wire 1 ) memRead_in $end
    $var wire 1 * memWrite_in $end
    $var wire 1 + branch_in $end
    $var wire 1 , aluSrc_in $end
    $var wire 5 d rs1_in [4:0] $end
    $var wire 5 e rs2_in [4:0] $end
    $var wire 32 - read_data_1_out [31:0] $end
    $var wire 32 . read_data_2_out [31:0] $end
    $var wire 32 / imm_out [31:0] $end
    $var wire 32 0 pc_out [31:0] $end
    $var wire 5 1 rd_out [4:0] $end
    $var wire 7 4 funct7_out [6:0] $end
    $var wire 3 5 funct3_out [2:0] $end
    $var wire 7 6 opcode_out [6:0] $end
    $var wire 1 7 regWrite_out $end
    $var wire 1 8 memtoReg_out $end
    $var wire 1 9 memRead_out $end
    $var wire 1 : memWrite_out $end
    $var wire 1 ; branch_out $end
    $var wire 1 < aluSrc_out $end
    $var wire 5 2 rs1_out [4:0] $end
    $var wire 5 3 rs2_out [4:0] $end
   $upscope $end
   $scope module u_if_id $end
    $var wire 32 A! WIDTH [31:0] $end
    $var wire 1 7! clk $end
    $var wire 1 8! rst $end
    $var wire 1 V wr $end
    $var wire 32 p pc_in [31:0] $end
    $var wire 32 9! instr_in [31:0] $end
    $var wire 32 $ pc_out [31:0] $end
    $var wire 32 % instr_out [31:0] $end
   $upscope $end
   $scope module u_imm_gen $end
    $var wire 32 A! WIDTH [31:0] $end
    $var wire 32 % instr [31:0] $end
    $var wire 32 & data_out [31:0] $end
    $var wire 1 i sign $end
    $var wire 12 j imm_I [11:0] $end
    $var wire 12 k imm_S [11:0] $end
    $var wire 13 l imm_B [12:0] $end
    $var wire 20 m imm_U [19:0] $end
    $var wire 21 n imm_J [20:0] $end
   $upscope $end
   $scope module u_inst_mem $end
    $var wire 32 A! WIDTH [31:0] $end
    $var wire 32 B! DEPTH [31:0] $end
    $var wire 32 p addr [31:0] $end
    $var wire 32 9! instr [31:0] $end
    $var wire 32 Q! MEM_SIZE [31:0] $end
   $upscope $end
   $scope module u_mem_wb $end
    $var wire 32 A! WIDTH [31:0] $end
    $var wire 1 7! clk $end
    $var wire 1 8! rst $end
    $var wire 32 <! read_data_in [31:0] $end
    $var wire 32 B alu_result_in [31:0] $end
    $var wire 32 C write_data_in [31:0] $end
    $var wire 5 D rd_in [4:0] $end
    $var wire 1 F regWrite_in $end
    $var wire 1 G memtoReg_in $end
    $var wire 1 I memWrite_in $end
    $var wire 32 M read_data_out [31:0] $end
    $var wire 32 N alu_result_out [31:0] $end
    $var wire 32 O write_data_out [31:0] $end
    $var wire 5 P rd_out [4:0] $end
    $var wire 1 Q regWrite_out $end
    $var wire 1 R memtoReg_out $end
    $var wire 1 S memWrite_out $end
   $upscope $end
   $scope module u_register_PC $end
    $var wire 32 A! WIDTH [31:0] $end
    $var wire 1 7! clk $end
    $var wire 1 8! rst $end
    $var wire 32 4! data_in [31:0] $end
    $var wire 1 V wr $end
    $var wire 32 p data_out [31:0] $end
   $upscope $end
   $scope module u_registers $end
    $var wire 32 A! WIDTH [31:0] $end
    $var wire 32 A! DEPTH [31:0] $end
    $var wire 1 7! clk $end
    $var wire 1 8! rst $end
    $var wire 1 Q reg_wr $end
    $var wire 5 P write_register [4:0] $end
    $var wire 32 o write_data [31:0] $end
    $var wire 5 d read_register_1 [4:0] $end
    $var wire 5 e read_register_2 [4:0] $end
    $var wire 32 :! read_data_1 [31:0] $end
    $var wire 32 ;! read_data_2 [31:0] $end
    $var wire 32 r registers[0] [31:0] $end
    $var wire 32 s registers[1] [31:0] $end
    $var wire 32 t registers[2] [31:0] $end
    $var wire 32 u registers[3] [31:0] $end
    $var wire 32 v registers[4] [31:0] $end
    $var wire 32 w registers[5] [31:0] $end
    $var wire 32 x registers[6] [31:0] $end
    $var wire 32 y registers[7] [31:0] $end
    $var wire 32 z registers[8] [31:0] $end
    $var wire 32 { registers[9] [31:0] $end
    $var wire 32 | registers[10] [31:0] $end
    $var wire 32 } registers[11] [31:0] $end
    $var wire 32 ~ registers[12] [31:0] $end
    $var wire 32 !! registers[13] [31:0] $end
    $var wire 32 "! registers[14] [31:0] $end
    $var wire 32 #! registers[15] [31:0] $end
    $var wire 32 $! registers[16] [31:0] $end
    $var wire 32 %! registers[17] [31:0] $end
    $var wire 32 &! registers[18] [31:0] $end
    $var wire 32 '! registers[19] [31:0] $end
    $var wire 32 (! registers[20] [31:0] $end
    $var wire 32 )! registers[21] [31:0] $end
    $var wire 32 *! registers[22] [31:0] $end
    $var wire 32 +! registers[23] [31:0] $end
    $var wire 32 ,! registers[24] [31:0] $end
    $var wire 32 -! registers[25] [31:0] $end
    $var wire 32 .! registers[26] [31:0] $end
    $var wire 32 /! registers[27] [31:0] $end
    $var wire 32 0! registers[28] [31:0] $end
    $var wire 32 1! registers[29] [31:0] $end
    $var wire 32 2! registers[30] [31:0] $end
    $var wire 32 3! registers[31] [31:0] $end
    $scope module unnamedblk1 $end
     $var wire 32 @! i [31:0] $end
    $upscope $end
   $upscope $end
  $upscope $end
 $upscope $end
$enddefinitions $end


#0
b00000000000000000000000000000000 #
b00000000000000000000000000000000 $
b00000000000000000000000000000000 %
b00000000000000000000000000000000 &
0'
0(
0)
0*
0+
0,
b00000000000000000000000000000000 -
b00000000000000000000000000000000 .
b00000000000000000000000000000000 /
b00000000000000000000000000000000 0
b00000 1
b00000 2
b00000 3
b0000000 4
b000 5
b0000000 6
07
08
09
0:
0;
0<
b00000000000000000000000000000000 =
0>
b00000000000000000000000000000000 ?
b00000000000000000000000000000000 @
b00000000000000000000000000000000 A
b00000000000000000000000000000000 B
b00000000000000000000000000000000 C
b00000 D
b000 E
0F
0G
0H
0I
0J
0K
0L
b00000000000000000000000000000000 M
b00000000000000000000000000000000 N
b00000000000000000000000000000000 O
b00000 P
0Q
0R
0S
b00 T
b00 U
1V
0W
0X
0Y
0Z
0[
0\
0]
1^
b0000000 _
b0000000000 `
b0000000001 a
b0000000010 b
b0000000011 c
b00000 d
b00000 e
b00000 f
b0000000 g
b000 h
0i
b000000000000 j
b000000000000 k
b0000000000000 l
b00000000000000000000 m
b000000000000000000000 n
b00000000000000000000000000000000 o
b00000000000000000000000000000000 p
b00000000000000000000000000000100 q
b00000000000000000000000000000000 r
b00000000000000000000000000000000 s
b00000000000000000000000000000000 t
b00000000000000000000000000000000 u
b00000000000000000000000000000000 v
b00000000000000000000000000000000 w
b00000000000000000000000000000000 x
b00000000000000000000000000000000 y
b00000000000000000000000000000000 z
b00000000000000000000000000000000 {
b00000000000000000000000000000000 |
b00000000000000000000000000000000 }
b00000000000000000000000000000000 ~
b00000000000000000000000000000000 !!
b00000000000000000000000000000000 "!
b00000000000000000000000000000000 #!
b00000000000000000000000000000000 $!
b00000000000000000000000000000000 %!
b00000000000000000000000000000000 &!
b00000000000000000000000000000000 '!
b00000000000000000000000000000000 (!
b00000000000000000000000000000000 )!
b00000000000000000000000000000000 *!
b00000000000000000000000000000000 +!
b00000000000000000000000000000000 ,!
b00000000000000000000000000000000 -!
b00000000000000000000000000000000 .!
b00000000000000000000000000000000 /!
b00000000000000000000000000000000 0!
b00000000000000000000000000000000 1!
b00000000000000000000000000000000 2!
b00000000000000000000000000000000 3!
b00000000000000000000000000000100 4!
b00000000 5!
b00000000 6!
07!
18!
b00000000010100000000000010010011 9!
b00000000000000000000000000000000 :!
b00000000000000000000000000000000 ;!
b00000000000000000000000000000000 <!
b00000000000000000000000000000000 =!
b00000000 >!
b00000000 ?!
b00000000000000000000000000000000 @!
b00000000000000000000000000100000 A!
b00000000000000000000000000001010 B!
b00000 C!
b0000000 D!
b000 E!
b0000000 F!
b00000000000000000000000000000100 G!
b0010011 H!
b0110011 I!
b0100011 J!
b0000011 K!
b1100011 L!
b1101111 M!
b1100111 N!
b0110111 O!
b0010111 P!
b00000000000000000000010000000000 Q!
b0000000 R!
#5000
17!
b00000000000000000000000000100000 @!
#10000
07!
#15000
17!
#20000
07!
08!
#25000
b00000000010100000000000010010011 %
b00000000000000000000000000000101 &
1'
1,
1\
b0010011 _
b00101 e
b00001 f
b000000000101 j
b000000000001 k
b0100000000000 l
b00000000010100000000 m
b000000000100000000100 n
b00000000000000000000000000000100 p
b00000000000000000000000000001000 q
b00000000000000000000000000001000 4!
17!
b00000000101000000000000100010011 9!
#30000
07!
#35000
b00000000000000000000000000000101 #
b00000000000000000000000000000100 $
b00000000101000000000000100010011 %
b00000000000000000000000000001010 &
b00000000000000000000000000000101 /
b00001 1
b00101 3
b0010011 6
17
1<
b00000000000000000000000000000101 =
b00000000000000000000000000000101 A
0^
b01010 e
b00010 f
b000000001010 j
b000000000010 k
b0000000000010 l
b00000000101000000000 m
b000000000000000001010 n
b00000000000000000000000000001000 p
b00000000000000000000000000001100 q
b00000000000000000000000000001100 4!
17!
b00000000001000001000000110110011 9!
#40000
07!
#45000
b00000000000000000000000000001110 #
b00000000000000000000000000001000 $
b00000000001000001000000110110011 %
b00000000000000000000000000000000 &
0,
b00000000000000000000000000001010 /
b00000000000000000000000000000100 0
b00010 1
b01010 3
b00000000000000000000000000001010 =
b00000000000000000000000000001010 A
b00000000000000000000000000000101 B
b00001 D
1F
b0110011 _
b0000000101 `
b0000000110 a
b0000000111 b
b0000001000 c
b00001 d
b00010 e
b00011 f
b000000000010 j
b000000000011 k
b0100000000010 l
b00000000001000001000 m
b000001000000000000010 n
b00000000000000000000000000001100 p
b00000000000000000000000000010000 q
b00000000000000000000000000010000 4!
17!
b00000000001100000010000000100011 9!
#50000
07!
#55000
b00000000000000000000000000001000 #
b00000000000000000000000000001100 $
b00000000001100000010000000100011 %
0'
1*
1,
b00000000000000000000000000000000 /
b00000000000000000000000000001000 0
b00011 1
b00001 2
b00010 3
b0110011 6
0<
b00000000000000000000000000001111 =
b00000000000000000000000000001010 ?
b00000000000000000000000000000101 @
b00000000000000000000000000001010 B
b00010 D
b00000000000000000000000000000101 N
b00001 P
1Q
b01 T
b10 U
1[
0\
b0100011 _
b0000001010 `
b0000001011 a
b0000001100 b
b0000001101 c
b00000 d
b00011 e
b00000 f
b010 h
b000000000011 j
b000000000000 k
b0000000000000 l
b00000000001100000010 m
b000000010100000000010 n
b00000000000000000000000000000101 o
b00000000000000000000000000010000 p
b00000000000000000000000000010100 q
b00000000000000000000000000010100 4!
17!
b00000000000000000010001000000011 9!
#60000
07!
#65000
b00000000000000000000000000001100 #
b00000000000000000000000000010000 $
b00000000000000000010001000000011 %
1'
1(
1)
0*
b00000000000000000000000000001100 0
b00000 1
b00000 2
b00011 3
b010 5
b0100011 6
07
1:
1<
b00000000000000000000000000000000 =
b00000000000000000000000000001111 ?
b00000000000000000000000000000000 @
b00000000000000000000000000000000 A
b00000000000000000000000000001111 B
b00000000000000000000000000001010 C
b00011 D
b00000000000000000000000000001010 N
b00010 P
b00 T
1Y
1Z
0[
1\
1^
b0000011 _
b0000001111 `
b0000010000 a
b0000010001 b
b0000010010 c
b00000 e
b00100 f
b000000000000 j
b000000000100 k
b0000000000100 l
b00000000000000000010 m
b000000010000000000000 n
b00000000000000000000000000001010 o
b00000000000000000000000000010100 p
b00000000000000000000000000011000 q
b00000000000000000000000000000101 s
b00000000000000000000000000011000 4!
17!
b00000000001000001001001010110011 9!
#70000
07!
#75000
b00000000000000000000000000010000 #
b00000000000000000000000000010100 $
b00000000001000001001001010110011 %
0(
0)
0,
b00000000000000000000000000010000 0
b00100 1
b00000 3
b0000011 6
17
18
19
0:
b00000000000000000000000000000000 ?
b00000000000000000000000000000000 B
b00000000000000000000000000001111 C
b00000 D
b010 E
0F
1I
b00000000000000000000000000001111 N
b00000000000000000000000000001010 O
b00011 P
b00 U
0Y
0Z
b0110011 _
b0000000000 `
b0000000001 a
b0000000010 b
b0000000011 c
b00001 d
b00010 e
b00101 f
b001 h
b000000000010 j
b000000000101 k
b0100000000100 l
b00000000001000001001 m
b000001001000000000010 n
b00000000000000000000000000001111 o
b00000000000000000000000000011000 p
b00000000000000000000000000011100 q
b00000000000000000000000000001010 t
b00000000000000000000000000011100 4!
17!
b00000000001000001001011001100011 9!
b00000000000000000000000000000101 :!
b00000000000000000000000000001010 ;!
#80000
07!
#85000
b00000000000000000000000000010100 #
b00000000000000000000000000011000 $
b00000000001000001001011001100011 %
b00000000000000000000000000001100 &
0'
1+
b00000000000000000000000000000101 -
b00000000000000000000000000001010 .
b00000000000000000000000000010100 0
b00101 1
b00001 2
b00010 3
b001 5
b0110011 6
08
09
0<
b00000000000000000001010000000000 =
b00000000000000000000000000001010 ?
b00000000000000000000000000000101 @
b00000000000000000000000000001010 A
b00000000000000000000000000000000 C
b00100 D
1F
1G
1H
0I
1L
b00000000000000000000000000000000 N
b00000000000000000000000000001111 O
b00000 P
0Q
1S
1X
0\
0^
b1100011 _
b01100 f
b000000001100 k
b0000000001100 l
b00000000000000000000000000000000 o
b00000000000000000000000000011100 p
b00000000000000000000000000100000 q
b00000000000000000000000000001111 u
b00000000000000000000000000100000 4!
b00001111 5!
17!
b00000110010000000000001100010011 9!
b00000000000000000000000000001111 <!
b00000000000000000000000000001111 =!
#90000
07!
#95000
b00000000000000000000000000100100 #
b00000000000000000000000000011100 $
b00000110010000000000001100010011 %
b00000000000000000000000001100100 &
1'
0+
1,
b00000000000000000000000000001100 /
b00000000000000000000000000011000 0
b01100 1
b1100011 6
07
1;
b00000000000000000000000000000000 =
1>
b00000000000000000001010000000000 B
b00000000000000000000000000001010 C
b00101 D
b001 E
0G
0H
0L
b00000000000000000000000000001111 M
b00000000000000000000000000000000 O
b00100 P
1Q
1R
0S
0X
1\
1^
b0010011 _
b00000 d
b00100 e
b00110 f
b0000011 g
b000 h
b000001100100 j
b000001100110 k
b0000001100110 l
b00000110010000000000 m
b000000000000001100100 n
b00000000000000000000000000001111 o
b00000000000000000000000000100000 p
b00000000000000000000000000100100 q
b00000000000000000000000000100100 4!
17!
b00000000100000000000000001101111 9!
b00000000000000000000000000000000 :!
b00000000000000000000000000000000 ;!
b00000000000000000000000000000000 <!
b00000000000000000000000000000000 =!
#100000
07!
#105000
b00000000000000000000000010000000 #
b00000000000000000000000000100000 $
b00000000100000000000000001101111 %
b00000000000000000000000000001000 &
b00000000000000000000000000000000 -
b00000000000000000000000000000000 .
b00000000000000000000000001100100 /
b00000000000000000000000000011100 0
b00110 1
b00000 2
b00100 3
b0000011 4
b000 5
b0010011 6
17
0;
1<
b00000000000000000000000001100100 =
0>
b00000000000000000000000000000000 ?
b00000000000000000000000000000000 @
b00000000000000000000000001100100 A
b00000000000000000000000000000000 B
b01100 D
0F
1J
1K
b00000000000000000000000000000000 M
b00000000000000000001010000000000 N
b00000000000000000000000000001010 O
b00101 P
0R
1]
0^
b1101111 _
b01000 e
b00000 f
b0000000 g
b000000001000 j
b000000000000 k
b0000000000000 l
b00000000100000000000 m
b000000000000000001000 n
b00000000000000000001010000000000 o
b00000000000000000000000000100100 p
b00000000000000000000000000101000 q
b00000000000000000000000000001111 v
b00000000000000000000000010000000 4!
17!
b00001100100000000000001100010011 9!
#110000
07!
#115000
b00000000000000000000000000101000 #
b00000000000000000000000000100100 $
b00001100100000000000001100010011 %
b00000000000000000000000011001000 &
b00000000000000000000000000001000 /
b00000000000000000000000000100000 0
b00000 1
b01000 3
b0000000 4
b1101111 6
b00000000000000000000000000001000 =
b00000000000000000000000000001000 A
b00000000000000000000000001100100 B
b00000000000000000000000000000000 C
b00110 D
b000 E
1F
0J
0K
b00000000000000000000000000000000 N
b01100 P
0Q
0]
b0010011 _
b0001100100 `
b0001100101 a
b0001100110 b
b0001100111 c
b00110 f
b0000110 g
b000011001000 j
b000011000110 k
b0000011000110 l
b00001100100000000000 m
b000000000000011001000 n
b00000000000000000000000000000000 o
b00000000000000000000000010000000 p
b00000000000000000000000010000100 q
b00000000000000000001010000000000 w
b00000000000000000000000010000100 4!
b00000000 5!
17!
b00000000000000000000000000000000 9!
#120000
07!
#125000
b00000000000000000000000011101100 #
b00000000000000000000000010000000 $
b00000000000000000000000000000000 %
b00000000000000000000000000000000 &
0'
0,
b00000000000000000000000011001000 /
b00000000000000000000000000100100 0
b00110 1
b0000110 4
b0010011 6
b00000000000000000000000011001000 =
b00000000000000000000000011001000 A
b00000000000000000000000000001000 B
b00000 D
b00000000000000000000000001100100 N
b00000000000000000000000000000000 O
b00110 P
1Q
0\
b0000000 _
b0000001000 `
b0000001001 a
b0000001010 b
b0000001011 c
b00000 e
b00000 f
b0000000 g
b000000000000 j
b000000000000 k
b0000000000000 l
b00000000000000000000 m
b000000000000000000000 n
b00000000000000000000000001100100 o
b00000000000000000000000010000100 p
b00000000000000000000000010001000 q
b00000000000000000000000010001000 4!
17!
#130000
07!
#135000
b00000000000000000000000010000000 #
b00000000000000000000000010000100 $
b00000000000000000000000000000000 /
b00000000000000000000000010000000 0
b00000 1
b00000 3
b0000000 4
b0000000 6
07
0<
b00000000000000000000000000000000 =
b00000000000000000000000000000000 A
b00000000000000000000000011001000 B
b00110 D
b00000000000000000000000000001000 N
b00000 P
1^
b0011001000 `
b0011001001 a
b0011001010 b
b0011001011 c
b00000000000000000000000000001000 o
b00000000000000000000000010001000 p
b00000000000000000000000010001100 q
b00000000000000000000000001100100 x
b00000000000000000000000010001100 4!
17!
#140000
07!
#145000
b00000000000000000000000010000100 #
b00000000000000000000000010001000 $
b00000000000000000000000010000100 0
b00000000000000000000000000000000 B
b00000 D
0F
b00000000000000000000000011001000 N
b00110 P
b0000000000 `
b0000000001 a
b0000000010 b
b0000000011 c
b00000000000000000000000011001000 o
b00000000000000000000000010001100 p
b00000000000000000000000010010000 q
b00000000000000000000000010010000 4!
b00001111 5!
17!
#150000
07!
#155000
b00000000000000000000000010001000 #
b00000000000000000000000010001100 $
b00000000000000000000000010001000 0
b00000000000000000000000000000000 N
b00000 P
0Q
b00000000000000000000000000000000 o
b00000000000000000000000010010000 p
b00000000000000000000000010010100 q
b00000000000000000000000011001000 x
b00000000000000000000000010010100 4!
17!
#160000
07!
#165000
b00000000000000000000000010001100 #
b00000000000000000000000010010000 $
b00000000000000000000000010001100 0
b00000000000000000000000010010100 p
b00000000000000000000000010011000 q
b00000000000000000000000010011000 4!
17!
#170000
07!
#175000
b00000000000000000000000010010000 #
b00000000000000000000000010010100 $
b00000000000000000000000010010000 0
b00000000000000000000000010011000 p
b00000000000000000000000010011100 q
b00000000000000000000000010011100 4!
17!
#180000
07!
#185000
b00000000000000000000000010010100 #
b00000000000000000000000010011000 $
b00000000000000000000000010010100 0
b00000000000000000000000010011100 p
b00000000000000000000000010100000 q
b00000000000000000000000010100000 4!
17!
#190000
07!
#195000
b00000000000000000000000010011000 #
b00000000000000000000000010011100 $
b00000000000000000000000010011000 0
b00000000000000000000000010100000 p
b00000000000000000000000010100100 q
b00000000000000000000000010100100 4!
17!
#200000
07!
#205000
b00000000000000000000000010011100 #
b00000000000000000000000010100000 $
b00000000000000000000000010011100 0
b00000000000000000000000010100100 p
b00000000000000000000000010101000 q
b00000000000000000000000010101000 4!
17!
#210000
07!
#215000
b00000000000000000000000010100000 #
b00000000000000000000000010100100 $
b00000000000000000000000010100000 0
b00000000000000000000000010101000 p
b00000000000000000000000010101100 q
b00000000000000000000000010101100 4!
17!
#220000
07!
#225000
b00000000000000000000000010100100 #
b00000000000000000000000010101000 $
b00000000000000000000000010100100 0
b00000000000000000000000010101100 p
b00000000000000000000000010110000 q
b00000000000000000000000010110000 4!
17!
#230000
07!
#235000
b00000000000000000000000010101000 #
b00000000000000000000000010101100 $
b00000000000000000000000010101000 0
b00000000000000000000000010110000 p
b00000000000000000000000010110100 q
b00000000000000000000000010110100 4!
17!
#240000
07!
#245000
b00000000000000000000000010101100 #
b00000000000000000000000010110000 $
b00000000000000000000000010101100 0
b00000000000000000000000010110100 p
b00000000000000000000000010111000 q
b00000000000000000000000010111000 4!
17!
#250000
07!
#255000
b00000000000000000000000010110000 #
b00000000000000000000000010110100 $
b00000000000000000000000010110000 0
b00000000000000000000000010111000 p
b00000000000000000000000010111100 q
b00000000000000000000000010111100 4!
17!
#260000
07!
#265000
b00000000000000000000000010110100 #
b00000000000000000000000010111000 $
b00000000000000000000000010110100 0
b00000000000000000000000010111100 p
b00000000000000000000000011000000 q
b00000000000000000000000011000000 4!
17!
#270000
07!
#275000
b00000000000000000000000010111000 #
b00000000000000000000000010111100 $
b00000000000000000000000010111000 0
b00000000000000000000000011000000 p
b00000000000000000000000011000100 q
b00000000000000000000000011000100 4!
17!
#280000
07!
#285000
b00000000000000000000000010111100 #
b00000000000000000000000011000000 $
b00000000000000000000000010111100 0
b00000000000000000000000011000100 p
b00000000000000000000000011001000 q
b00000000000000000000000011001000 4!
17!
#290000
07!
#295000
b00000000000000000000000011000000 #
b00000000000000000000000011000100 $
b00000000000000000000000011000000 0
b00000000000000000000000011001000 p
b00000000000000000000000011001100 q
b00000000000000000000000011001100 4!
17!
#300000
07!
