PipelinedProcessor/MultiCycle2/wave.vcd
$version Generated by VerilatedVcd $end
$timescale 1ps $end
 $scope module tb_top $end
  $var wire 32 o WIDTH [31:0] $end
  $var wire 32 o REG_FILE_DEPTH [31:0] $end
  $var wire 32 p INST_MEM_DEPTH [31:0] $end
  $var wire 32 p DATA_MEM_DEPTH [31:0] $end
  $var wire 1 m clk $end
  $var wire 1 n rst $end
  $scope module uut $end
   $var wire 32 o WIDTH [31:0] $end
   $var wire 32 o REG_FILE_DEPTH [31:0] $end
   $var wire 32 p INST_MEM_DEPTH [31:0] $end
   $var wire 32 p DATA_MEM_DEPTH [31:0] $end
   $var wire 1 m t_clk $end
   $var wire 1 n t_rst $end
   $var wire 32 # w_pc_mux_2x1_out [31:0] $end
   $var wire 32 $ w_pc_out [31:0] $end
   $var wire 32 % w_instruction [31:0] $end
   $var wire 32 & w_imm_out [31:0] $end
   $var wire 32 ' w_read_data_1 [31:0] $end
   $var wire 32 ( w_read_data_2 [31:0] $end
   $var wire 32 ) w_alu_mux_2x1_out [31:0] $end
   $var wire 32 * w_alu_data_out [31:0] $end
   $var wire 32 + w_read_data [31:0] $end
   $var wire 32 , w_registers_mux_2x1_out [31:0] $end
   $var wire 32 - w_pc_4_adder_out [31:0] $end
   $var wire 32 . w_pc_imm_adder_out [31:0] $end
   $var wire 1 / w_comparison $end
   $var wire 1 0 w_branch $end
   $var wire 1 1 w_memRead $end
   $var wire 1 2 w_memtoReg $end
   $var wire 1 3 w_memWrite $end
   $var wire 1 4 w_aluSrc $end
   $var wire 1 5 w_regWrite $end
   $scope module alu_mux_2x1 $end
    $var wire 32 o WIDTH [31:0] $end
    $var wire 32 & A [31:0] $end
    $var wire 32 ( B [31:0] $end
    $var wire 1 4 sel $end
    $var wire 32 ) out [31:0] $end
   $upscope $end
   $scope module pc_4_adder $end
    $var wire 32 o WIDTH [31:0] $end
    $var wire 32 $ A [31:0] $end
    $var wire 32 q B [31:0] $end
    $var wire 32 - out [31:0] $end
   $upscope $end
   $scope module pc_imm_adder $end
    $var wire 32 o WIDTH [31:0] $end
    $var wire 32 $ A [31:0] $end
    $var wire 32 & B [31:0] $end
    $var wire 32 . out [31:0] $end
   $upscope $end
   $scope module pc_mux_2x1 $end
    $var wire 32 o WIDTH [31:0] $end
    $var wire 32 . A [31:0] $end
    $var wire 32 - B [31:0] $end
    $var wire 1 6 sel $end
    $var wire 32 # out [31:0] $end
   $upscope $end
   $scope module registers_mux_2x1 $end
    $var wire 32 o WIDTH [31:0] $end
    $var wire 32 + A [31:0] $end
    $var wire 32 * B [31:0] $end
    $var wire 1 2 sel $end
    $var wire 32 , out [31:0] $end
   $upscope $end
   $scope module u_alu $end
    $var wire 32 o WIDTH [31:0] $end
    $var wire 32 ' data_in_1 [31:0] $end
    $var wire 32 ) data_in_2 [31:0] $end
    $var wire 3 7 funct3 [2:0] $end
    $var wire 7 8 funct7 [6:0] $end
    $var wire 7 9 opcode [6:0] $end
    $var wire 32 * data_out [31:0] $end
    $var wire 1 : zero $end
    $var wire 1 / comparison $end
    $var wire 7 r ALI_OP [6:0] $end
    $var wire 7 s AL_OP [6:0] $end
    $var wire 7 t MEM_WR_OP [6:0] $end
    $var wire 7 u MEM_RD_OP [6:0] $end
    $var wire 7 v BR_OP [6:0] $end
    $var wire 7 w JAL [6:0] $end
    $var wire 7 x JALR [6:0] $end
    $var wire 7 y LUI [6:0] $end
    $var wire 7 z AUIPC [6:0] $end
   $upscope $end
   $scope module u_control $end
    $var wire 7 9 opcode [6:0] $end
    $var wire 1 0 branch $end
    $var wire 1 1 memRead $end
    $var wire 1 2 memtoReg $end
    $var wire 1 3 memWrite $end
    $var wire 1 4 aluSrc $end
    $var wire 1 5 regWrite $end
    $var wire 7 r ALI_OP [6:0] $end
    $var wire 7 s AL_OP [6:0] $end
    $var wire 7 t MEM_WR_OP [6:0] $end
    $var wire 7 u MEM_RD_OP [6:0] $end
    $var wire 7 v BR_OP [6:0] $end
    $var wire 7 x JALR [6:0] $end
    $var wire 7 w JAL [6:0] $end
    $var wire 7 y LUI [6:0] $end
    $var wire 7 z AUIPC [6:0] $end
   $upscope $end
   $scope module u_data_mem $end
    $var wire 32 o WIDTH [31:0] $end
    $var wire 32 p DEPTH [31:0] $end
    $var wire 1 m clk $end
    $var wire 1 n rst $end
    $var wire 32 ( data_in [31:0] $end
    $var wire 32 * addr [31:0] $end
    $var wire 1 3 wr_en $end
    $var wire 1 1 rd_en $end
    $var wire 3 7 funct3 [2:0] $end
    $var wire 32 + data_out [31:0] $end
    $var wire 32 { MEM_SIZE [31:0] $end
    $var wire 10 ; a0 [9:0] $end
    $var wire 10 < a1 [9:0] $end
    $var wire 10 = a2 [9:0] $end
    $var wire 10 > a3 [9:0] $end
    $var wire 8 ? b0 [7:0] $end
    $var wire 8 @ b1 [7:0] $end
    $var wire 8 A b2 [7:0] $end
    $var wire 8 B b3 [7:0] $end
   $upscope $end
   $scope module u_imm_gen $end
    $var wire 32 o WIDTH [31:0] $end
    $var wire 32 % instr [31:0] $end
    $var wire 32 & data_out [31:0] $end
    $var wire 1 C sign $end
    $var wire 12 D imm_I [11:0] $end
    $var wire 12 E imm_S [11:0] $end
    $var wire 13 F imm_B [12:0] $end
    $var wire 20 G imm_U [19:0] $end
    $var wire 21 H imm_J [20:0] $end
   $upscope $end
   $scope module u_inst_mem $end
    $var wire 32 o WIDTH [31:0] $end
    $var wire 32 p DEPTH [31:0] $end
    $var wire 32 $ addr [31:0] $end
    $var wire 32 % instr [31:0] $end
    $var wire 32 { MEM_SIZE [31:0] $end
   $upscope $end
   $scope module u_register_PC $end
    $var wire 32 o WIDTH [31:0] $end
    $var wire 1 m clk $end
    $var wire 1 n rst $end
    $var wire 32 # data_in [31:0] $end
    $var wire 1 | wr $end
    $var wire 32 $ data_out [31:0] $end
   $upscope $end
   $scope module u_registers $end
    $var wire 32 o WIDTH [31:0] $end
    $var wire 32 o DEPTH [31:0] $end
    $var wire 1 m clk $end
    $var wire 1 n rst $end
    $var wire 1 5 reg_wr $end
    $var wire 5 I write_register [4:0] $end
    $var wire 32 , write_data [31:0] $end
    $var wire 5 J read_register_1 [4:0] $end
    $var wire 5 K read_register_2 [4:0] $end
    $var wire 32 ' read_data_1 [31:0] $end
    $var wire 32 ( read_data_2 [31:0] $end
    $var wire 32 L registers[0] [31:0] $end
    $var wire 32 M registers[1] [31:0] $end
    $var wire 32 N registers[2] [31:0] $end
    $var wire 32 O registers[3] [31:0] $end
    $var wire 32 P registers[4] [31:0] $end
    $var wire 32 Q registers[5] [31:0] $end
    $var wire 32 R registers[6] [31:0] $end
    $var wire 32 S registers[7] [31:0] $end
    $var wire 32 T registers[8] [31:0] $end
    $var wire 32 U registers[9] [31:0] $end
    $var wire 32 V registers[10] [31:0] $end
    $var wire 32 W registers[11] [31:0] $end
    $var wire 32 X registers[12] [31:0] $end
    $var wire 32 Y registers[13] [31:0] $end
    $var wire 32 Z registers[14] [31:0] $end
    $var wire 32 [ registers[15] [31:0] $end
    $var wire 32 \ registers[16] [31:0] $end
    $var wire 32 ] registers[17] [31:0] $end
    $var wire 32 ^ registers[18] [31:0] $end
    $var wire 32 _ registers[19] [31:0] $end
    $var wire 32 ` registers[20] [31:0] $end
    $var wire 32 a registers[21] [31:0] $end
    $var wire 32 b registers[22] [31:0] $end
    $var wire 32 c registers[23] [31:0] $end
    $var wire 32 d registers[24] [31:0] $end
    $var wire 32 e registers[25] [31:0] $end
    $var wire 32 f registers[26] [31:0] $end
    $var wire 32 g registers[27] [31:0] $end
    $var wire 32 h registers[28] [31:0] $end
    $var wire 32 i registers[29] [31:0] $end
    $var wire 32 j registers[30] [31:0] $end
    $var wire 32 k registers[31] [31:0] $end
    $scope module unnamedblk1 $end
     $var wire 32 l i [31:0] $end
    $upscope $end
   $upscope $end
  $upscope $end
 $upscope $end
$enddefinitions $end


#0
b00000000000000000000000000000100 #
b00000000000000000000000000000000 $
b00000000010100000000000010010011 %
b00000000000000000000000000000101 &
b00000000000000000000000000000000 '
b00000000000000000000000000000000 (
b00000000000000000000000000000101 )
b00000000000000000000000000000101 *
b00000000000000000000000000000000 +
b00000000000000000000000000000101 ,
b00000000000000000000000000000100 -
b00000000000000000000000000000101 .
0/
00
01
02
03
14
15
06
b000 7
b0000000 8
b0010011 9
0:
b0000000101 ;
b0000000110 <
b0000000111 =
b0000001000 >
b00000000 ?
b00000000 @
b00000000 A
b00000000 B
0C
b000000000101 D
b000000000001 E
b0100000000000 F
b00000000010100000000 G
b000000000100000000100 H
b00001 I
b00000 J
b00101 K
b00000000000000000000000000000000 L
b00000000000000000000000000000000 M
b00000000000000000000000000000000 N
b00000000000000000000000000000000 O
b00000000000000000000000000000000 P
b00000000000000000000000000000000 Q
b00000000000000000000000000000000 R
b00000000000000000000000000000000 S
b00000000000000000000000000000000 T
b00000000000000000000000000000000 U
b00000000000000000000000000000000 V
b00000000000000000000000000000000 W
b00000000000000000000000000000000 X
b00000000000000000000000000000000 Y
b00000000000000000000000000000000 Z
b00000000000000000000000000000000 [
b00000000000000000000000000000000 \
b00000000000000000000000000000000 ]
b00000000000000000000000000000000 ^
b00000000000000000000000000000000 _
b00000000000000000000000000000000 `
b00000000000000000000000000000000 a
b00000000000000000000000000000000 b
b00000000000000000000000000000000 c
b00000000000000000000000000000000 d
b00000000000000000000000000000000 e
b00000000000000000000000000000000 f
b00000000000000000000000000000000 g
b00000000000000000000000000000000 h
b00000000000000000000000000000000 i
b00000000000000000000000000000000 j
b00000000000000000000000000000000 k
b00000000000000000000000000000000 l
0m
1n
b00000000000000000000000000100000 o
b00000000000000000000000000001010 p
b00000000000000000000000000000100 q
b0010011 r
b0110011 s
b0100011 t
b0000011 u
b1100011 v
b1101111 w
b1100111 x
b0110111 y
b0010111 z
b00000000000000000000010000000000 {
1|
#5000
b00000000000000000000000000100000 l
1m
#10000
0m
#15000
1m
#20000
0m
0n
#25000
b00000000000000000000000000001000 #
b00000000000000000000000000000100 $
b00000000101000000000000100010011 %
b00000000000000000000000000001010 &
b00000000000000000000000000001010 )
b00000000000000000000000000001010 *
b00000000000000000000000000001010 ,
b00000000000000000000000000001000 -
b00000000000000000000000000001110 .
b0000001010 ;
b0000001011 <
b0000001100 =
b0000001101 >
b000000001010 D
b000000000010 E
b0000000000010 F
b00000000101000000000 G
b000000000000000001010 H
b00010 I
b01010 K
b00000000000000000000000000000101 M
1m
#30000
0m
#35000
b00000000000000000000000000001100 #
b00000000000000000000000000001000 $
b00000000001000001000000110110011 %
b00000000000000000000000000000000 &
b00000000000000000000000000000101 '
b00000000000000000000000000001010 (
b00000000000000000000000000001111 *
b00000000000000000000000000001111 ,
b00000000000000000000000000001100 -
b00000000000000000000000000001000 .
04
b0110011 9
b0000001111 ;
b0000010000 <
b0000010001 =
b0000010010 >
b000000000010 D
b000000000011 E
b0100000000010 F
b00000000001000001000 G
b000001000000000000010 H
b00011 I
b00001 J
b00010 K
b00000000000000000000000000001010 N
1m
#40000
0m
#45000
b00000000000000000000000000010000 #
b00000000000000000000000000001100 $
b00000000001100000010000000100011 %
b00000000000000000000000000000000 '
b00000000000000000000000000001111 (
b00000000000000000000000000000000 )
b00000000000000000000000000000000 *
b00000000000000000000000000000000 ,
b00000000000000000000000000010000 -
b00000000000000000000000000001100 .
13
14
05
b010 7
b0100011 9
1:
b0000000000 ;
b0000000001 <
b0000000010 =
b0000000011 >
b000000000011 D
b000000000000 E
b0000000000000 F
b00000000001100000010 G
b000000010100000000010 H
b00000 I
b00000 J
b00011 K
b00000000000000000000000000001111 O
1m
#50000
0m
#55000
b00000000000000000000000000010100 #
b00000000000000000000000000010000 $
b00000000000000000010001000000011 %
b00000000000000000000000000000000 (
b00000000000000000000000000001111 +
b00000000000000000000000000001111 ,
b00000000000000000000000000010100 -
b00000000000000000000000000010000 .
11
12
03
15
b0000011 9
b00001111 ?
b000000000000 D
b000000000100 E
b0000000000100 F
b00000000000000000010 G
b000000010000000000000 H
b00100 I
b00000 K
1m
#60000
0m
#65000
b00000000000000000000000000011000 #
b00000000000000000000000000010100 $
b00000000001000001001001010110011 %
b00000000000000000000000000000101 '
b00000000000000000000000000001010 (
b00000000000000000000000000001010 )
b00000000000000000001010000000000 *
b00000000000000000000000000000000 +
b00000000000000000001010000000000 ,
b00000000000000000000000000011000 -
b00000000000000000000000000010100 .
01
02
04
b001 7
b0110011 9
0:
b000000000010 D
b000000000101 E
b0100000000100 F
b00000000001000001001 G
b000001001000000000010 H
b00101 I
b00001 J
b00010 K
b00000000000000000000000000001111 P
1m
#70000
0m
#75000
b00000000000000000000000000100100 #
b00000000000000000000000000011000 $
b00000000001000001001011001100011 %
b00000000000000000000000000001100 &
b00000000000000000000000000000000 *
b00000000000000000000000000000000 ,
b00000000000000000000000000011100 -
b00000000000000000000000000100100 .
1/
10
05
16
b1100011 9
1:
b000000001100 E
b0000000001100 F
b01100 I
b00000000000000000001010000000000 Q
1m
#80000
0m
#85000
b00000000000000000000000000101000 #
b00000000000000000000000000100100 $
b00001100100000000000001100010011 %
b00000000000000000000000011001000 &
b00000000000000000000000000000000 '
b00000000000000000000000000000000 (
b00000000000000000000000011001000 )
b00000000000000000000000011001000 *
b00000000000000000000000011001000 ,
b00000000000000000000000000101000 -
b00000000000000000000000011101100 .
0/
00
14
15
06
b000 7
b0000110 8
b0010011 9
0:
b0011001000 ;
b0011001001 <
b0011001010 =
b0011001011 >
b00000000 ?
b000011001000 D
b000011000110 E
b0000011000110 F
b00001100100000000000 G
b000000000000011001000 H
b00110 I
b00000 J
b01000 K
1m
#90000
0m
#95000
b00000000000000000000000000101100 #
b00000000000000000000000000101000 $
b00000000000000000000000000010011 %
b00000000000000000000000000000000 &
b00000000000000000000000000000000 )
b00000000000000000000000000000000 *
b00000000000000000000000000000000 ,
b00000000000000000000000000101100 -
b00000000000000000000000000101000 .
b0000000 8
1:
b0000000000 ;
b0000000001 <
b0000000010 =
b0000000011 >
b00001111 ?
b000000000000 D
b000000000000 E
b0000000000000 F
b00000000000000000000 G
b000000000000000000000 H
b00000 I
b00000 K
b00000000000000000000000011001000 R
1m
#100000
0m
#105000
b00000000000000000000000000110000 #
b00000000000000000000000000101100 $
b00000000000000000000000000000000 %
b00000000000000000000000000110000 -
b00000000000000000000000000101100 .
04
05
b0000000 9
1m
#110000
0m
#115000
b00000000000000000000000000110100 #
b00000000000000000000000000110000 $
b00000000000000000000000000110100 -
b00000000000000000000000000110000 .
1m
#120000
0m
#125000
b00000000000000000000000000111000 #
b00000000000000000000000000110100 $
b00000000000000000000000000111000 -
b00000000000000000000000000110100 .
1m
#130000
0m
#135000
b00000000000000000000000000111100 #
b00000000000000000000000000111000 $
b00000000000000000000000000111100 -
b00000000000000000000000000111000 .
1m
#140000
0m
#145000
b00000000000000000000000001000000 #
b00000000000000000000000000111100 $
b00000000000000000000000001000000 -
b00000000000000000000000000111100 .
1m
#150000
0m
#155000
b00000000000000000000000001000100 #
b00000000000000000000000001000000 $
b00000000000000000000000001000100 -
b00000000000000000000000001000000 .
1m
#160000
0m
#165000
b00000000000000000000000001001000 #
b00000000000000000000000001000100 $
b00000000000000000000000001001000 -
b00000000000000000000000001000100 .
1m
#170000
0m
#175000
b00000000000000000000000001001100 #
b00000000000000000000000001001000 $
b00000000000000000000000001001100 -
b00000000000000000000000001001000 .
1m
#180000
0m
#185000
b00000000000000000000000001010000 #
b00000000000000000000000001001100 $
b00000000000000000000000001010000 -
b00000000000000000000000001001100 .
1m
#190000
0m
#195000
b00000000000000000000000001010100 #
b00000000000000000000000001010000 $
b00000000000000000000000001010100 -
b00000000000000000000000001010000 .
1m
#200000
0m
#205000
b00000000000000000000000001011000 #
b00000000000000000000000001010100 $
b00000000000000000000000001011000 -
b00000000000000000000000001010100 .
1m
#210000
0m
#215000
b00000000000000000000000001011100 #
b00000000000000000000000001011000 $
b00000000000000000000000001011100 -
b00000000000000000000000001011000 .
1m
#220000
0m
#225000
b00000000000000000000000001100000 #
b00000000000000000000000001011100 $
b00000000000000000000000001100000 -
b00000000000000000000000001011100 .
1m
#230000
0m
#235000
b00000000000000000000000001100100 #
b00000000000000000000000001100000 $
b00000000000000000000000001100100 -
b00000000000000000000000001100000 .
1m
#240000
0m
#245000
b00000000000000000000000001101000 #
b00000000000000000000000001100100 $
b00000000000000000000000001101000 -
b00000000000000000000000001100100 .
1m
#250000
0m
#255000
b00000000000000000000000001101100 #
b00000000000000000000000001101000 $
b00000000000000000000000001101100 -
b00000000000000000000000001101000 .
1m
#260000
0m
#265000
b00000000000000000000000001110000 #
b00000000000000000000000001101100 $
b00000000000000000000000001110000 -
b00000000000000000000000001101100 .
1m
#270000
0m
#275000
b00000000000000000000000001110100 #
b00000000000000000000000001110000 $
b00000000000000000000000001110100 -
b00000000000000000000000001110000 .
1m
#280000
0m
#285000
b00000000000000000000000001111000 #
b00000000000000000000000001110100 $
b00000000000000000000000001111000 -
b00000000000000000000000001110100 .
1m
#290000
0m
#295000
b00000000000000000000000001111100 #
b00000000000000000000000001111000 $
b00000000000000000000000001111100 -
b00000000000000000000000001111000 .
1m
#300000
0m
#305000
b00000000000000000000000010000000 #
b00000000000000000000000001111100 $
b00000000000000000000000010000000 -
b00000000000000000000000001111100 .
1m
#310000
0m
#315000
b00000000000000000000000010000100 #
b00000000000000000000000010000000 $
b00000000000000000000000010000100 -
b00000000000000000000000010000000 .
1m
#320000
0m
#325000
b00000000000000000000000010001000 #
b00000000000000000000000010000100 $
b00000000000000000000000010001000 -
b00000000000000000000000010000100 .
1m
#330000
0m
#335000
b00000000000000000000000010001100 #
b00000000000000000000000010001000 $
b00000000000000000000000010001100 -
b00000000000000000000000010001000 .
1m
#340000
0m
#345000
b00000000000000000000000010010000 #
b00000000000000000000000010001100 $
b00000000000000000000000010010000 -
b00000000000000000000000010001100 .
1m
#350000
0m
#355000
b00000000000000000000000010010100 #
b00000000000000000000000010010000 $
b00000000000000000000000010010100 -
b00000000000000000000000010010000 .
1m
#360000
0m
#365000
b00000000000000000000000010011000 #
b00000000000000000000000010010100 $
b00000000000000000000000010011000 -
b00000000000000000000000010010100 .
1m
#370000
0m
#375000
b00000000000000000000000010011100 #
b00000000000000000000000010011000 $
b00000000000000000000000010011100 -
b00000000000000000000000010011000 .
1m
#380000
0m
#385000
b00000000000000000000000010100000 #
b00000000000000000000000010011100 $
b00000000000000000000000010100000 -
b00000000000000000000000010011100 .
1m
#390000
0m
#395000
b00000000000000000000000010100100 #
b00000000000000000000000010100000 $
b00000000000000000000000010100100 -
b00000000000000000000000010100000 .
1m
#400000
0m
#405000
b00000000000000000000000010101000 #
b00000000000000000000000010100100 $
b00000000000000000000000010101000 -
b00000000000000000000000010100100 .
1m
#410000
0m
#415000
b00000000000000000000000010101100 #
b00000000000000000000000010101000 $
b00000000000000000000000010101100 -
b00000000000000000000000010101000 .
1m
#420000
0m
#425000
b00000000000000000000000010110000 #
b00000000000000000000000010101100 $
b00000000000000000000000010110000 -
b00000000000000000000000010101100 .
1m
#430000
0m
#435000
b00000000000000000000000010110100 #
b00000000000000000000000010110000 $
b00000000000000000000000010110100 -
b00000000000000000000000010110000 .
1m
#440000
0m
#445000
b00000000000000000000000010111000 #
b00000000000000000000000010110100 $
b00000000000000000000000010111000 -
b00000000000000000000000010110100 .
1m
#450000
0m
#455000
b00000000000000000000000010111100 #
b00000000000000000000000010111000 $
b00000000000000000000000010111100 -
b00000000000000000000000010111000 .
1m
#460000
0m
#465000
b00000000000000000000000011000000 #
b00000000000000000000000010111100 $
b00000000000000000000000011000000 -
b00000000000000000000000010111100 .
1m
#470000
0m
#475000
b00000000000000000000000011000100 #
b00000000000000000000000011000000 $
b00000000000000000000000011000100 -
b00000000000000000000000011000000 .
1m
#480000
0m
#485000
b00000000000000000000000011001000 #
b00000000000000000000000011000100 $
b00000000000000000000000011001000 -
b00000000000000000000000011000100 .
1m
#490000
0m
#495000
b00000000000000000000000011001100 #
b00000000000000000000000011001000 $
b00000000000000000000000011001100 -
b00000000000000000000000011001000 .
1m
#500000
0m
#505000
b00000000000000000000000011010000 #
b00000000000000000000000011001100 $
b00000000000000000000000011010000 -
b00000000000000000000000011001100 .
1m
#510000
0m
#515000
b00000000000000000000000011010100 #
b00000000000000000000000011010000 $
b00000000000000000000000011010100 -
b00000000000000000000000011010000 .
1m
#520000
0m
#525000
b00000000000000000000000011011000 #
b00000000000000000000000011010100 $
b00000000000000000000000011011000 -
b00000000000000000000000011010100 .
1m
#530000
0m
#535000
b00000000000000000000000011011100 #
b00000000000000000000000011011000 $
b00000000000000000000000011011100 -
b00000000000000000000000011011000 .
1m
#540000
0m
#545000
b00000000000000000000000011100000 #
b00000000000000000000000011011100 $
b00000000000000000000000011100000 -
b00000000000000000000000011011100 .
1m
#550000
0m
#555000
b00000000000000000000000011100100 #
b00000000000000000000000011100000 $
b00000000000000000000000011100100 -
b00000000000000000000000011100000 .
1m
#560000
0m
#565000
b00000000000000000000000011101000 #
b00000000000000000000000011100100 $
b00000000000000000000000011101000 -
b00000000000000000000000011100100 .
1m
#570000
0m
#575000
b00000000000000000000000011101100 #
b00000000000000000000000011101000 $
b00000000000000000000000011101100 -
b00000000000000000000000011101000 .
1m
#580000
0m
#585000
b00000000000000000000000011110000 #
b00000000000000000000000011101100 $
b00000000000000000000000011110000 -
b00000000000000000000000011101100 .
1m
#590000
0m
#595000
b00000000000000000000000011110100 #
b00000000000000000000000011110000 $
b00000000000000000000000011110100 -
b00000000000000000000000011110000 .
1m
#600000
0m
#605000
b00000000000000000000000011111000 #
b00000000000000000000000011110100 $
b00000000000000000000000011111000 -
b00000000000000000000000011110100 .
1m
#610000
0m
#615000
b00000000000000000000000011111100 #
b00000000000000000000000011111000 $
b00000000000000000000000011111100 -
b00000000000000000000000011111000 .
1m
#620000
0m
#625000
b00000000000000000000000100000000 #
b00000000000000000000000011111100 $
b00000000000000000000000100000000 -
b00000000000000000000000011111100 .
1m
#630000
0m
#635000
b00000000000000000000000100000100 #
b00000000000000000000000100000000 $
b00000000000000000000000100000100 -
b00000000000000000000000100000000 .
1m
#640000
0m
#645000
b00000000000000000000000100001000 #
b00000000000000000000000100000100 $
b00000000000000000000000100001000 -
b00000000000000000000000100000100 .
1m
#650000
0m
#655000
b00000000000000000000000100001100 #
b00000000000000000000000100001000 $
b00000000000000000000000100001100 -
b00000000000000000000000100001000 .
1m
#660000
0m
#665000
b00000000000000000000000100010000 #
b00000000000000000000000100001100 $
b00000000000000000000000100010000 -
b00000000000000000000000100001100 .
1m
#670000
0m
#675000
b00000000000000000000000100010100 #
b00000000000000000000000100010000 $
b00000000000000000000000100010100 -
b00000000000000000000000100010000 .
1m
#680000
0m
#685000
b00000000000000000000000100011000 #
b00000000000000000000000100010100 $
b00000000000000000000000100011000 -
b00000000000000000000000100010100 .
1m
#690000
0m
#695000
b00000000000000000000000100011100 #
b00000000000000000000000100011000 $
b00000000000000000000000100011100 -
b00000000000000000000000100011000 .
1m
#700000
0m
#705000
b00000000000000000000000100100000 #
b00000000000000000000000100011100 $
b00000000000000000000000100100000 -
b00000000000000000000000100011100 .
1m
#710000
0m
#715000
b00000000000000000000000100100100 #
b00000000000000000000000100100000 $
b00000000000000000000000100100100 -
b00000000000000000000000100100000 .
1m
#720000
0m
#725000
b00000000000000000000000100101000 #
b00000000000000000000000100100100 $
b00000000000000000000000100101000 -
b00000000000000000000000100100100 .
1m
#730000
0m
#735000
b00000000000000000000000100101100 #
b00000000000000000000000100101000 $
b00000000000000000000000100101100 -
b00000000000000000000000100101000 .
1m
#740000
0m
#745000
b00000000000000000000000100110000 #
b00000000000000000000000100101100 $
b00000000000000000000000100110000 -
b00000000000000000000000100101100 .
1m
#750000
0m
#755000
b00000000000000000000000100110100 #
b00000000000000000000000100110000 $
b00000000000000000000000100110100 -
b00000000000000000000000100110000 .
1m
#760000
0m
#765000
b00000000000000000000000100111000 #
b00000000000000000000000100110100 $
b00000000000000000000000100111000 -
b00000000000000000000000100110100 .
1m
#770000
0m
#775000
b00000000000000000000000100111100 #
b00000000000000000000000100111000 $
b00000000000000000000000100111100 -
b00000000000000000000000100111000 .
1m
#780000
0m
#785000
b00000000000000000000000101000000 #
b00000000000000000000000100111100 $
b00000000000000000000000101000000 -
b00000000000000000000000100111100 .
1m
#790000
0m
#795000
b00000000000000000000000101000100 #
b00000000000000000000000101000000 $
b00000000000000000000000101000100 -
b00000000000000000000000101000000 .
1m
#800000
0m
#805000
b00000000000000000000000101001000 #
b00000000000000000000000101000100 $
b00000000000000000000000101001000 -
b00000000000000000000000101000100 .
1m
#810000
0m
#815000
b00000000000000000000000101001100 #
b00000000000000000000000101001000 $
b00000000000000000000000101001100 -
b00000000000000000000000101001000 .
1m
#820000
0m
#825000
b00000000000000000000000101010000 #
b00000000000000000000000101001100 $
b00000000000000000000000101010000 -
b00000000000000000000000101001100 .
1m
#830000
0m
#835000
b00000000000000000000000101010100 #
b00000000000000000000000101010000 $
b00000000000000000000000101010100 -
b00000000000000000000000101010000 .
1m
#840000
0m
#845000
b00000000000000000000000101011000 #
b00000000000000000000000101010100 $
b00000000000000000000000101011000 -
b00000000000000000000000101010100 .
1m
#850000
0m
#855000
b00000000000000000000000101011100 #
b00000000000000000000000101011000 $
b00000000000000000000000101011100 -
b00000000000000000000000101011000 .
1m
#860000
0m
#865000
b00000000000000000000000101100000 #
b00000000000000000000000101011100 $
b00000000000000000000000101100000 -
b00000000000000000000000101011100 .
1m
#870000
0m
#875000
b00000000000000000000000101100100 #
b00000000000000000000000101100000 $
b00000000000000000000000101100100 -
b00000000000000000000000101100000 .
1m
#880000
0m
#885000
b00000000000000000000000101101000 #
b00000000000000000000000101100100 $
b00000000000000000000000101101000 -
b00000000000000000000000101100100 .
1m
#890000
0m
#895000
b00000000000000000000000101101100 #
b00000000000000000000000101101000 $
b00000000000000000000000101101100 -
b00000000000000000000000101101000 .
1m
#900000
0m
#905000
b00000000000000000000000101110000 #
b00000000000000000000000101101100 $
b00000000000000000000000101110000 -
b00000000000000000000000101101100 .
1m
#910000
0m
#915000
b00000000000000000000000101110100 #
b00000000000000000000000101110000 $
b00000000000000000000000101110100 -
b00000000000000000000000101110000 .
1m
#920000
0m
#925000
b00000000000000000000000101111000 #
b00000000000000000000000101110100 $
b00000000000000000000000101111000 -
b00000000000000000000000101110100 .
1m
#930000
0m
#935000
b00000000000000000000000101111100 #
b00000000000000000000000101111000 $
b00000000000000000000000101111100 -
b00000000000000000000000101111000 .
1m
#940000
0m
#945000
b00000000000000000000000110000000 #
b00000000000000000000000101111100 $
b00000000000000000000000110000000 -
b00000000000000000000000101111100 .
1m
#950000
0m
#955000
b00000000000000000000000110000100 #
b00000000000000000000000110000000 $
b00000000000000000000000110000100 -
b00000000000000000000000110000000 .
1m
#960000
0m
#965000
b00000000000000000000000110001000 #
b00000000000000000000000110000100 $
b00000000000000000000000110001000 -
b00000000000000000000000110000100 .
1m
#970000
0m
#975000
b00000000000000000000000110001100 #
b00000000000000000000000110001000 $
b00000000000000000000000110001100 -
b00000000000000000000000110001000 .
1m
#980000
0m
#985000
b00000000000000000000000110010000 #
b00000000000000000000000110001100 $
b00000000000000000000000110010000 -
b00000000000000000000000110001100 .
1m
#990000
0m
#995000
b00000000000000000000000110010100 #
b00000000000000000000000110010000 $
b00000000000000000000000110010100 -
b00000000000000000000000110010000 .
1m
#1000000
0m
#1005000
b00000000000000000000000110011000 #
b00000000000000000000000110010100 $
b00000000000000000000000110011000 -
b00000000000000000000000110010100 .
1m
#1010000
0m
#1015000
b00000000000000000000000110011100 #
b00000000000000000000000110011000 $
b00000000000000000000000110011100 -
b00000000000000000000000110011000 .
1m
#1020000
0m
#1025000
b00000000000000000000000110100000 #
b00000000000000000000000110011100 $
b00000000000000000000000110100000 -
b00000000000000000000000110011100 .
1m
#1030000
0m
#1035000
b00000000000000000000000110100100 #
b00000000000000000000000110100000 $
b00000000000000000000000110100100 -
b00000000000000000000000110100000 .
1m
#1040000
0m
#1045000
b00000000000000000000000110101000 #
b00000000000000000000000110100100 $
b00000000000000000000000110101000 -
b00000000000000000000000110100100 .
1m
#1050000
0m
#1055000
b00000000000000000000000110101100 #
b00000000000000000000000110101000 $
b00000000000000000000000110101100 -
b00000000000000000000000110101000 .
1m
#1060000
0m
#1065000
b00000000000000000000000110110000 #
b00000000000000000000000110101100 $
b00000000000000000000000110110000 -
b00000000000000000000000110101100 .
1m
#1070000
0m
#1075000
b00000000000000000000000110110100 #
b00000000000000000000000110110000 $
b00000000000000000000000110110100 -
b00000000000000000000000110110000 .
1m
#1080000
0m
#1085000
b00000000000000000000000110111000 #
b00000000000000000000000110110100 $
b00000000000000000000000110111000 -
b00000000000000000000000110110100 .
1m
#1090000
0m
#1095000
b00000000000000000000000110111100 #
b00000000000000000000000110111000 $
b00000000000000000000000110111100 -
b00000000000000000000000110111000 .
1m
#1100000
0m
#1105000
b00000000000000000000000111000000 #
b00000000000000000000000110111100 $
b00000000000000000000000111000000 -
b00000000000000000000000110111100 .
1m
#1110000
0m
#1115000
b00000000000000000000000111000100 #
b00000000000000000000000111000000 $
b00000000000000000000000111000100 -
b00000000000000000000000111000000 .
1m
